Copying tests/userprog/bad-read2 to scratch partition...
qemu -hda /tmp/DPRfOaPW2d.dsk -m 4 -net none -nographic -monitor null
PiLo hda1
Loading.............
Kernel command line: -q -f extract run bad-read2
Pintos booting with 4,088 kB RAM...
382 pages available in kernel pool.
382 pages available in user pool.
Calibrating timer...  38,041,600 loops/s.
hda: 5,040 sectors (2 MB), model "QM00001", serial "QEMU HARDDISK"
hda1: 216 sectors (108 kB), Pintos OS kernel (20)
hda2: 4,096 sectors (2 MB), Pintos file system (21)
hda3: 73 sectors (36 kB), Pintos scratch (22)
filesys: using hda2
scratch: using hda3
Formatting file system...done.
Boot complete.
Extracting ustar archive from scratch device into file system...
Putting 'bad-read2' into the file system...
Erasing ustar archive...
Executing 'bad-read2':
(bad-read2) begin
bad-read2: exit(-1)
Execution of 'bad-read2' complete.
Timer: 55 ticks
Thread: 30 idle ticks, 24 kernel ticks, 1 user ticks
hda2 (filesys): 65 reads, 150 writes
hda3 (scratch): 72 reads, 2 writes
Console: 869 characters output
Keyboard: 0 keys pressed
Exception: 1 page faults
Powering off...
