Copying tests/userprog/create-bad-ptr to scratch partition...
qemu -hda /tmp/TmEE7v6eCA.dsk -m 4 -net none -nographic -monitor null
PiLo hda1
Loading.............
Kernel command line: -q -f extract run create-bad-ptr
Pintos booting with 4,088 kB RAM...
382 pages available in kernel pool.
382 pages available in user pool.
Calibrating timer...  12,825,600 loops/s.
hda: 5,040 sectors (2 MB), model "QM00001", serial "QEMU HARDDISK"
hda1: 216 sectors (108 kB), Pintos OS kernel (20)
hda2: 4,096 sectors (2 MB), Pintos file system (21)
hda3: 73 sectors (36 kB), Pintos scratch (22)
filesys: using hda2
scratch: using hda3
Formatting file system...done.
Boot complete.
Extracting ustar archive from scratch device into file system...
Putting 'create-bad-ptr' into the file system...
Erasing ustar archive...
Executing 'create-bad-ptr':
(create-bad-ptr) begin
create-bad-ptr: exit(-1)
Execution of 'create-bad-ptr' complete.
Timer: 74 ticks
Thread: 30 idle ticks, 41 kernel ticks, 4 user ticks
hda2 (filesys): 65 reads, 153 writes
hda3 (scratch): 72 reads, 2 writes
Console: 899 characters output
Keyboard: 0 keys pressed
Exception: 1 page faults
Powering off...
