Copying tests/userprog/multi-recurse to scratch partition...
qemu -hda /tmp/lT5YMoncJT.dsk -m 4 -net none -nographic -monitor null
PiLo hda1
Loading.............
Kernel command line: -q -f extract run 'multi-recurse 15'
Pintos booting with 4,088 kB RAM...
382 pages available in kernel pool.
382 pages available in user pool.
Calibrating timer...  26,214,400 loops/s.
hda: 5,040 sectors (2 MB), model "QM00001", serial "QEMU HARDDISK"
hda1: 216 sectors (108 kB), Pintos OS kernel (20)
hda2: 4,096 sectors (2 MB), Pintos file system (21)
hda3: 81 sectors (40 kB), Pintos scratch (22)
filesys: using hda2
scratch: using hda3
Formatting file system...done.
Boot complete.
Extracting ustar archive from scratch device into file system...
Putting 'multi-recurse' into the file system...
Erasing ustar archive...
Executing 'multi-recurse 15':
(multi-recurse) begin 15
(multi-recurse) exec("multi-recurse 14")
(multi-recurse) begin 14
(multi-recurse) exec("multi-recurse 13")
(multi-recurse) begin 13
(multi-recurse) exec("multi-recurse 12")
(multi-recurse) begin 12
(multi-recurse) exec("multi-recurse 11")
(multi-recurse) begin 11
(multi-recurse) exec("multi-recurse 10")
(multi-recurse) begin 10
(multi-recurse) exec("multi-recurse 9")
(multi-recurse) begin 9
(multi-recurse) exec("multi-recurse 8")
(multi-recurse) begin 8
(multi-recurse) exec("multi-recurse 7")
(multi-recurse) begin 7
(multi-recurse) exec("multi-recurse 6")
(multi-recurse) begin 6
(multi-recurse) exec("multi-recurse 5")
(multi-recurse) begin 5
(multi-recurse) exec("multi-recurse 4")
(multi-recurse) begin 4
(multi-recurse) exec("multi-recurse 3")
(multi-recurse) begin 3
(multi-recurse) exec("multi-recurse 2")
(multi-recurse) begin 2
(multi-recurse) exec("multi-recurse 1")
(multi-recurse) begin 1
(multi-recurse) exec("multi-recurse 0")
(multi-recurse) begin 0
(multi-recurse) end 0
multi-recurse: exit(0)
(multi-recurse) end 1
multi-recurse: exit(1)
(multi-recurse) end 2
multi-recurse: exit(2)
(multi-recurse) end 3
multi-recurse: exit(3)
(multi-recurse) end 4
multi-recurse: exit(4)
(multi-recurse) end 5
multi-recurse: exit(5)
(multi-recurse) end 6
multi-recurse: exit(6)
(multi-recurse) end 7
multi-recurse: exit(7)
(multi-recurse) end 8
multi-recurse: exit(8)
(multi-recurse) end 9
multi-recurse: exit(9)
(multi-recurse) end 10
multi-recurse: exit(10)
(multi-recurse) end 11
multi-recurse: exit(11)
(multi-recurse) end 12
multi-recurse: exit(12)
(multi-recurse) end 13
multi-recurse: exit(13)
(multi-recurse) end 14
multi-recurse: exit(14)
(multi-recurse) end 15
multi-recurse: exit(15)
Execution of 'multi-recurse 15' complete.
Timer: 124 ticks
Thread: 30 idle ticks, 53 kernel ticks, 41 user ticks
hda2 (filesys): 732 reads, 166 writes
hda3 (scratch): 80 reads, 2 writes
Console: 2588 characters output
Keyboard: 0 keys pressed
Exception: 0 page faults
Powering off...
