Copying tests/userprog/write-normal to scratch partition...
Copying ../../tests/userprog/sample.txt to scratch partition...
qemu -hda /tmp/NE6YcbnnCB.dsk -m 4 -net none -nographic -monitor null
PiLo hda1
Loading.............
Kernel command line: -q -f extract run write-normal
Pintos booting with 4,088 kB RAM...
382 pages available in kernel pool.
382 pages available in user pool.
Calibrating timer...  39,270,400 loops/s.
hda: 5,040 sectors (2 MB), model "QM00001", serial "QEMU HARDDISK"
hda1: 216 sectors (108 kB), Pintos OS kernel (20)
hda2: 4,096 sectors (2 MB), Pintos file system (21)
hda3: 76 sectors (38 kB), Pintos scratch (22)
filesys: using hda2
scratch: using hda3
Formatting file system...done.
Boot complete.
Extracting ustar archive from scratch device into file system...
Putting 'write-normal' into the file system...
Putting 'sample.txt' into the file system...
Erasing ustar archive...
Executing 'write-normal':
(write-normal) begin
(write-normal) create "test.txt"
(write-normal) open "test.txt"
(write-normal) end
write-normal: exit(0)
Execution of 'write-normal' complete.
Timer: 59 ticks
Thread: 30 idle ticks, 27 kernel ticks, 2 user ticks
hda2 (filesys): 118 reads, 164 writes
hda3 (scratch): 75 reads, 2 writes
Console: 1015 characters output
Keyboard: 0 keys pressed
Exception: 0 page faults
Powering off...
